<svg width="32" height="32" viewBox="0 0 32 32" fill="none" xmlns="http://www.w3.org/2000/svg">
<g clip-path="url(#clip0_411_14)">
<rect x="0.5" y="0.5" width="31" height="31" rx="3.5" fill="#FFE15D"/>
<path d="M9.36141 19.9988C9.48476 20.1224 9.63128 20.2205 9.79258 20.2874C9.95387 20.3543 10.1268 20.3887 10.3014 20.3887C10.476 20.3887 10.6489 20.3543 10.8102 20.2874C10.9715 20.2205 11.1181 20.1224 11.2414 19.9988L16.4147 14.8255L21.5881 19.9988C21.8374 20.2481 22.1755 20.3882 22.5281 20.3882C22.8806 20.3882 23.2188 20.2481 23.4681 19.9988C23.7174 19.7495 23.8574 19.4114 23.8574 19.0588C23.8574 18.7062 23.7174 18.3681 23.4681 18.1188L17.3481 11.9988C17.2247 11.8752 17.0782 11.7771 16.9169 11.7102C16.7556 11.6433 16.5827 11.6089 16.4081 11.6089C16.2335 11.6089 16.0605 11.6433 15.8992 11.7102C15.7379 11.7771 15.5914 11.8752 15.4681 11.9988L9.34808 18.1188C8.84141 18.6255 8.84141 19.4788 9.36141 19.9988Z" fill="#303841"/>
<rect x="0.5" y="0.5" width="31" height="31" rx="3.5" stroke="#303841"/>
</g>
<defs>
<clipPath id="clip0_411_14">
<rect width="32" height="32" rx="4" fill="white"/>
</clipPath>
</defs>
</svg>
