<svg width="25" height="24" viewBox="0 0 25 24" fill="none" xmlns="http://www.w3.org/2000/svg">
<path d="M20.9053 9.02918L20.9053 9.02916L13.4054 2.66622L20.9053 9.02918ZM20.9053 9.02918C21.0603 9.16059 21.1849 9.32417 21.2703 9.50855C21.3557 9.69294 21.4 9.89371 21.4 10.0969V19.4999C21.4 19.8712 21.2525 20.2273 20.9899 20.4899C20.7274 20.7524 20.3713 20.8999 20 20.8999H14.25C14.0776 20.8999 13.9123 20.8314 13.7904 20.7095C13.6685 20.5876 13.6 20.4223 13.6 20.2499V13.9999V13.8999M20.9053 9.02918L13.6 13.8999M13.6 13.8999H13.5M13.6 13.8999H13.5M13.5 13.8999H11.5H11.4M13.5 13.8999H11.4M11.4 13.8999V13.9999M11.4 13.8999V13.9999M11.4 13.9999V20.2499C11.4 20.4223 11.3315 20.5876 11.2096 20.7095C11.0877 20.8314 10.9224 20.8999 10.75 20.8999H5C4.6287 20.8999 4.2726 20.7524 4.01005 20.4899C3.7475 20.2273 3.6 19.8712 3.6 19.4999V10.0969C3.6 9.6863 3.78107 9.29518 4.09469 9.02917L4.09469 9.02916M11.4 13.9999L4.09469 9.02916M4.09469 9.02916L11.5946 2.66622L4.09469 9.02916ZM12.5 2.33438C12.1685 2.33438 11.8477 2.45194 11.5947 2.66616L12.5 2.33438ZM12.5 2.33438C12.8315 2.33438 13.1523 2.45194 13.4053 2.66616L12.5 2.33438ZM12.5647 3.65765L12.5 3.60276L12.4353 3.65765L4.93531 10.0207L4.9 10.0506V10.0969V19.4999V19.5999H5H10H10.1V19.4999V13.2499C10.1 13.0775 10.1685 12.9122 10.2904 12.7903C10.4123 12.6684 10.5776 12.5999 10.75 12.5999H14.25C14.4224 12.5999 14.5877 12.6684 14.7096 12.7903C14.8315 12.9122 14.9 13.0775 14.9 13.2499V19.4999V19.5999H15H20H20.1V19.4999V10.0969V10.0506L20.0647 10.0207L12.5647 3.65765Z" fill="#303841" stroke="white" stroke-width="0.2"/>
</svg>
