<svg width="41" height="40" viewBox="0 0 41 40" fill="none" xmlns="http://www.w3.org/2000/svg">
<path d="M28.3078 25.7505L30.0805 22.8369C31.4593 20.571 31.8568 17.8018 31.1712 15.2391C30.0313 10.9766 26.1531 8 21.7406 8H21.1098C15.8148 8 11.507 12.3079 11.507 17.6028V18.8927L9.70837 21.6563C9.50484 21.9691 9.44701 22.3538 9.54991 22.7126C9.65282 23.0711 9.90561 23.3669 10.2433 23.5234L11.5477 24.1303L12.0608 27.0517C12.3167 28.5098 13.5772 29.568 15.0573 29.568H17.4167C17.7427 29.568 18.028 29.8 18.0941 30.119L18.475 31.9517C18.5127 32.1329 18.6727 32.2632 18.8583 32.2632H27.9463C28.064 32.2632 28.1757 32.2099 28.2496 32.1187C28.324 32.0275 28.3533 31.9073 28.3294 31.7924L27.7478 28.9927C27.5158 27.8763 27.715 26.725 28.3078 25.7505ZM26.9819 29.1517L27.4657 31.4805H19.1773L18.8615 29.9597C18.7201 29.2792 18.1129 28.7849 17.4179 28.7849H15.0585C13.9589 28.7849 13.0228 27.9988 12.8325 26.9163L12.2838 23.7938C12.2614 23.6678 12.1793 23.5606 12.0635 23.5069L10.5741 22.8139C10.4399 22.7517 10.3437 22.639 10.303 22.4964C10.2622 22.3541 10.2841 22.2073 10.3651 22.0833L12.2268 19.2221C12.2679 19.1583 12.2902 19.0839 12.2902 19.0084V17.6024C12.29 12.739 16.2464 8.78271 21.1099 8.78271H21.7407C25.7993 8.78271 29.3663 11.5209 30.4155 15.4417C31.0461 17.7989 30.6804 20.3462 29.4122 22.4304L27.6394 25.344C26.9427 26.4881 26.7092 27.8403 26.9819 29.1517ZM17.0813 19.3015C16.7878 19.7607 16.155 20.0454 15.4301 20.0454C14.7049 20.0454 14.0721 19.7601 13.7786 19.3015C13.6619 19.1191 13.7152 18.8774 13.8976 18.7606C14.0788 18.6445 14.3214 18.6972 14.438 18.8796C14.5561 19.0643 14.917 19.2627 15.43 19.2627C15.9431 19.2627 16.3038 19.0639 16.4219 18.8796C16.5381 18.6976 16.7808 18.6448 16.9623 18.7606C17.1447 18.8773 17.198 19.1191 17.0813 19.3015ZM26.4998 13.2423C25.5031 12.6395 24.3127 12.5488 23.2529 12.969C23.1437 11.8329 22.5219 10.8163 21.5338 10.2026C21.4078 10.124 21.2473 10.124 21.1209 10.2026C20.1324 10.8158 19.5105 11.8333 19.4013 12.9697C18.3377 12.5506 17.1492 12.6409 16.1551 13.2421C16.0279 13.3188 15.9551 13.4612 15.9677 13.6091C16.073 14.8904 16.8165 16.0023 17.9565 16.583C18.4848 16.8531 19.0554 16.9872 19.6256 16.9872C20.2107 16.9872 20.7918 16.8377 21.328 16.5564C21.8633 16.8373 22.444 16.9865 23.0291 16.9865C23.5988 16.9865 24.1699 16.8524 24.6992 16.5832C25.8395 16.0005 26.5827 14.8887 26.6881 13.6093C26.6995 13.4607 26.6266 13.3189 26.4998 13.2423ZM21.327 11.0081C22.0611 11.5544 22.4928 12.4033 22.4928 13.3256C22.4928 14.248 22.0611 15.0971 21.327 15.6436C20.5929 15.0976 20.1612 14.2484 20.1612 13.3256C20.1612 12.4028 20.5929 11.5535 21.327 11.0081ZM18.3117 15.8853C17.4892 15.4662 16.9291 14.6953 16.7785 13.7917C17.5975 13.3862 18.5509 13.3887 19.3766 13.8097C19.3895 13.8163 19.4024 13.8242 19.4154 13.8312C19.5324 14.6836 19.9465 15.4556 20.5819 16.0328C19.8414 16.2947 19.0279 16.252 18.3117 15.8853ZM24.3428 15.8853C23.6259 16.2496 22.8122 16.2935 22.0727 16.0324C22.7079 15.4552 23.1214 14.6839 23.2389 13.8319C23.2537 13.824 23.267 13.8154 23.2824 13.8076C24.1042 13.3876 25.0567 13.3853 25.8766 13.7915C25.7261 14.6937 25.1657 15.4647 24.3428 15.8853Z" fill="#B088F9" stroke="#B088F9" stroke-width="0.6"/>
<path d="M22.7 1.96299L35.0205 9.07624C36.3819 9.86222 37.2205 11.3148 37.2205 12.8868V27.1132C37.2205 28.6852 36.3819 30.1378 35.0205 30.9238L22.7 38.037C21.3386 38.823 19.6614 38.823 18.3 38.037L5.97949 30.9238C4.61813 30.1378 3.77949 28.6852 3.77949 27.1132V12.8868C3.77949 11.3148 4.61813 9.86222 5.97949 9.07624L18.3 1.96299C19.6614 1.17701 21.3386 1.17701 22.7 1.96299Z" stroke="#B088F9" stroke-width="1.2"/>
</svg>
