<svg width="16" height="16" viewBox="0 0 16 16" fill="none" xmlns="http://www.w3.org/2000/svg">
<path fill-rule="evenodd" clip-rule="evenodd" d="M8.00626 16C3.58259 16 0 12.4237 0 8.00001C0 3.57634 3.58248 0 8.00626 0C12.428 0 16 3.57634 16 8.00001C16 12.4237 12.4278 16 8.00626 16ZM8.00626 15.2226C11.9889 15.2226 15.2288 11.9847 15.2288 8.00001C15.2288 4.01531 11.9889 0.777429 8.00626 0.777429C4.02172 0.777429 0.783698 4.01545 0.783698 8.00001C0.783698 11.9845 4.02172 15.2226 8.00626 15.2226Z" fill="#303841"/>
<path fill-rule="evenodd" clip-rule="evenodd" d="M4.5176 3.20015C4.32043 3.2218 4.15595 3.40937 4.16024 3.60769V5.73307C4.16024 6.54263 4.77963 7.216 5.56463 7.313V12.4353C5.56422 12.6457 5.75548 12.8374 5.96588 12.8374C6.17627 12.8374 6.3676 12.6457 6.36713 12.4353V7.313C7.15484 7.21871 7.77152 6.544 7.77152 5.73307V3.60769C7.77192 3.39729 7.58066 3.20552 7.37027 3.20552C7.15987 3.20552 6.96854 3.39729 6.96901 3.60769V5.73307C6.96901 6.10679 6.71448 6.42068 6.36713 6.50424V3.62648C6.3705 3.41219 6.17389 3.21557 5.95961 3.21894C5.74951 3.22215 5.56132 3.41639 5.56463 3.62648V6.49796C5.22022 6.41185 4.96275 6.1037 4.96275 5.73307V3.60769C4.96612 3.3934 4.7695 3.19678 4.55522 3.20015C4.54268 3.20015 4.53013 3.20015 4.5176 3.20015Z" fill="#303841"/>
<path fill-rule="evenodd" clip-rule="evenodd" d="M10.3349 3.21269C9.79364 3.21269 9.32795 3.52703 9.01832 3.96504C8.7087 4.40305 8.5293 4.97618 8.5293 5.60142C8.5293 6.22579 8.70869 6.80008 9.01832 7.23777C9.24775 7.5621 9.56441 7.81034 9.93368 7.92116V12.4353C9.93328 12.6457 10.1245 12.8374 10.3349 12.8374C10.5453 12.8374 10.7367 12.6457 10.7362 12.4353V7.9274C11.1088 7.81785 11.4268 7.56435 11.6578 7.23777C11.9675 6.80008 12.1406 6.22579 12.1406 5.60142C12.1406 4.97618 11.9674 4.40305 11.6578 3.96504C11.3482 3.52703 10.8762 3.21269 10.3349 3.21269Z" fill="#303841"/>
</svg>
