<svg width="24" height="24" viewBox="0 0 24 24" fill="none" xmlns="http://www.w3.org/2000/svg">
<path d="M13 16C13 16.2652 12.8946 16.5196 12.7071 16.7071C12.5196 16.8946 12.2652 17 12 17C11.7348 17 11.4804 16.8946 11.2929 16.7071C11.1054 16.5196 11 16.2652 11 16C11 15.7348 11.1054 15.4804 11.2929 15.2929C11.4804 15.1054 11.7348 15 12 15C12.2652 15 12.5196 15.1054 12.7071 15.2929C12.8946 15.4804 13 15.7348 13 16Z" fill="#303841"/>
<path fill-rule="evenodd" clip-rule="evenodd" d="M20.92 1.40492C21.0379 1.49527 21.1263 1.61858 21.174 1.75922C21.2217 1.89986 21.2266 2.0515 21.188 2.19492L20.193 5.90892L22.089 4.81492C22.1743 4.7649 22.2687 4.73225 22.3667 4.71885C22.4647 4.70545 22.5644 4.71157 22.66 4.73685C22.7556 4.76213 22.8453 4.80608 22.9239 4.86616C23.0025 4.92624 23.0684 5.00127 23.1178 5.08693C23.1673 5.17258 23.1993 5.26718 23.2121 5.36526C23.2248 5.46335 23.218 5.56299 23.1921 5.65844C23.1662 5.7539 23.1217 5.84328 23.0611 5.92145C23.0004 5.99962 22.925 6.06503 22.839 6.11392L19.375 8.11392C19.2465 8.18832 19.0988 8.2229 18.9506 8.21327C18.8025 8.20365 18.6605 8.15027 18.5427 8.05988C18.4249 7.96949 18.3365 7.84617 18.2889 7.70554C18.2412 7.56491 18.2364 7.4133 18.275 7.26992L19.271 3.55492L17.375 4.64992C17.2026 4.74938 16.9978 4.77628 16.8055 4.72471C16.6133 4.67313 16.4495 4.54731 16.35 4.37492C16.2505 4.20253 16.2236 3.99769 16.2752 3.80547C16.3268 3.61324 16.4526 3.44938 16.625 3.34992L20.089 1.34992C20.2176 1.27573 20.3652 1.24135 20.5133 1.25115C20.6615 1.26094 20.8023 1.31445 20.92 1.40492ZM12 2.74992C10.1705 2.74992 8.38213 3.29242 6.86098 4.30883C5.33982 5.32523 4.15423 6.76988 3.45411 8.4601C2.754 10.1503 2.57082 12.0102 2.92774 13.8045C3.28465 15.5988 4.16563 17.247 5.45926 18.5407C6.7529 19.8343 8.40109 20.7153 10.1954 21.0722C11.9897 21.4291 13.8496 21.2459 15.5398 20.5458C17.23 19.8457 18.6747 18.6601 19.6911 17.1389C20.7075 15.6178 21.25 13.8294 21.25 11.9999C21.25 11.801 21.329 11.6102 21.4697 11.4696C21.6103 11.3289 21.8011 11.2499 22 11.2499C22.1989 11.2499 22.3897 11.3289 22.5303 11.4696C22.671 11.6102 22.75 11.801 22.75 11.9999C22.75 17.9369 17.937 22.7499 12 22.7499C6.063 22.7499 1.25 17.9369 1.25 11.9999C1.25 6.06292 6.063 1.24992 12 1.24992C12.1989 1.24992 12.3897 1.32894 12.5303 1.46959C12.671 1.61024 12.75 1.80101 12.75 1.99992C12.75 2.19883 12.671 2.3896 12.5303 2.53025C12.3897 2.6709 12.1989 2.74992 12 2.74992ZM13.398 5.12492C13.4472 5.03952 13.5128 4.96466 13.5909 4.90461C13.6691 4.84456 13.7583 4.80051 13.8535 4.77497C13.9487 4.74943 14.048 4.7429 14.1457 4.75576C14.2434 4.76863 14.3377 4.80062 14.423 4.84992L16.155 5.84992C16.2835 5.92409 16.3871 6.0347 16.4527 6.16775C16.5183 6.3008 16.543 6.45032 16.5236 6.5974C16.5042 6.74447 16.4417 6.8825 16.3438 6.99402C16.246 7.10554 16.1173 7.18555 15.974 7.22392L14.991 7.48792L15.155 7.58292C15.3259 7.68308 15.4502 7.84676 15.5008 8.03823C15.5514 8.2297 15.5242 8.43343 15.4252 8.60494C15.3262 8.77646 15.1633 8.90184 14.9722 8.95373C14.7811 9.00562 14.5772 8.97981 14.405 8.88192L12.673 7.88192C12.5445 7.80783 12.4409 7.6973 12.3752 7.56431C12.3095 7.43133 12.2848 7.28186 12.304 7.13479C12.3233 6.98773 12.3857 6.84968 12.4834 6.7381C12.5812 6.62652 12.7098 6.54642 12.853 6.50792L13.837 6.24392L13.673 6.14992C13.5876 6.10072 13.5127 6.03516 13.4527 5.957C13.3926 5.87884 13.3486 5.78962 13.323 5.69442C13.2975 5.59923 13.291 5.49993 13.3038 5.40221C13.3167 5.30449 13.3487 5.21027 13.398 5.12492ZM5.998 10.4419C6.07124 10.3759 6.15678 10.325 6.24971 10.2921C6.34265 10.2592 6.44116 10.2449 6.53961 10.2501C6.63806 10.2554 6.73452 10.2799 6.82347 10.3224C6.91242 10.3649 6.99212 10.4246 7.058 10.4979C7.522 11.0149 8.023 11.2499 8.5 11.2499C8.977 11.2499 9.478 11.0149 9.942 10.4979C10.0079 10.4246 10.0876 10.3651 10.1766 10.3226C10.2655 10.2801 10.362 10.2556 10.4604 10.2504C10.5588 10.2452 10.6573 10.2594 10.7502 10.2923C10.8432 10.3252 10.9287 10.376 11.002 10.4419C11.0753 10.5078 11.1349 10.5876 11.1773 10.6765C11.2198 10.7655 11.2443 10.8619 11.2495 10.9603C11.2547 11.0588 11.2405 11.1572 11.2076 11.2502C11.1748 11.3431 11.1239 11.4286 11.058 11.5019C10.388 12.2449 9.51 12.7499 8.5 12.7499C7.49 12.7499 6.611 12.2449 5.942 11.5019C5.87601 11.4287 5.8251 11.3431 5.79219 11.2502C5.75929 11.1573 5.74503 11.0588 5.75023 10.9603C5.75543 10.8619 5.77999 10.7654 5.8225 10.6764C5.86502 10.5875 5.92466 10.5078 5.998 10.4419ZM12.998 10.4419C13.0712 10.3759 13.1568 10.325 13.2497 10.2921C13.3426 10.2592 13.4412 10.2449 13.5396 10.2501C13.6381 10.2554 13.7345 10.2799 13.8235 10.3224C13.9124 10.3649 13.9921 10.4246 14.058 10.4979C14.523 11.0149 15.023 11.2499 15.5 11.2499C15.977 11.2499 16.477 11.0149 16.942 10.4979C17.0751 10.3499 17.2616 10.2609 17.4604 10.2504C17.6592 10.2399 17.854 10.3088 18.002 10.4419C18.15 10.5751 18.239 10.7615 18.2495 10.9603C18.26 11.1591 18.1911 11.3539 18.058 11.5019C17.388 12.2449 16.51 12.7499 15.5 12.7499C14.49 12.7499 13.611 12.2449 12.942 11.5019C12.876 11.4287 12.8251 11.3431 12.7922 11.2502C12.7593 11.1573 12.745 11.0588 12.7502 10.9603C12.7554 10.8619 12.78 10.7654 12.8225 10.6764C12.865 10.5875 12.9247 10.5078 12.998 10.4419Z" fill="#303841"/>
</svg>
