<svg width="19" height="19" viewBox="0 0 19 19" fill="none" xmlns="http://www.w3.org/2000/svg">
<path d="M17.9053 7.02918L17.9053 7.02916L10.4054 0.666219L17.9053 7.02918ZM17.9053 7.02918C18.0603 7.16059 18.1849 7.32417 18.2703 7.50855C18.3557 7.69294 18.4 7.89371 18.4 8.09692V17.4999C18.4 17.8712 18.2525 18.2273 17.9899 18.4899C17.7274 18.7524 17.3713 18.8999 17 18.8999H11.25C11.0776 18.8999 10.9123 18.8314 10.7904 18.7095C10.6685 18.5876 10.6 18.4223 10.6 18.2499V11.9999V11.8999M17.9053 7.02918L10.6 11.8999M10.6 11.8999H10.5M10.6 11.8999H10.5M10.5 11.8999H8.5H8.4M10.5 11.8999H8.4M8.4 11.8999V11.9999M8.4 11.8999V11.9999M8.4 11.9999V18.2499C8.4 18.4223 8.33152 18.5876 8.20962 18.7095C8.08772 18.8314 7.92239 18.8999 7.75 18.8999H2C1.6287 18.8999 1.2726 18.7524 1.01005 18.4899C0.7475 18.2273 0.6 17.8712 0.6 17.4999V8.09691C0.6 7.6863 0.781073 7.29518 1.09469 7.02917L1.09469 7.02916M8.4 11.9999L1.09469 7.02916M1.09469 7.02916L8.59462 0.666219L1.09469 7.02916ZM9.5 0.334375C9.16848 0.334375 8.8477 0.451937 8.59469 0.666159L9.5 0.334375ZM9.5 0.334375C9.83152 0.334375 10.1523 0.451937 10.4053 0.666159L9.5 0.334375ZM9.56469 1.65765L9.5 1.60276L9.43531 1.65765L1.93531 8.02065L1.9 8.0506V8.09691V17.4999V17.5999H2H7H7.1V17.4999V11.2499C7.1 11.0775 7.16848 10.9122 7.29038 10.7903C7.41228 10.6684 7.57761 10.5999 7.75 10.5999H11.25C11.4224 10.5999 11.5877 10.6684 11.7096 10.7903C11.8315 10.9122 11.9 11.0775 11.9 11.2499V17.4999V17.5999H12H17H17.1V17.4999V8.09691V8.0506L17.0647 8.02065L9.56469 1.65765Z" fill="#303841" stroke="white" stroke-width="0.2"/>
</svg>
